{
    "packageDirectories": [
        {
            "path": "force-app",
            "default": true,
            "package": "EDHU Trigger Framework",
            "versionName": "Spring 20",
            "versionNumber": "2.1.0.NEXT",
            "ancestorVersion": "2.0.0.3"
        }
    ],
    "namespace": "edhu",
    "sfdcLoginUrl": "https://login.salesforce.com",
    "sourceApiVersion": "48.0",
    "packageAliases": {
        "EDHU Trigger Framework": "0Ho1P000000Gmb2SAC",
        "EDHU Trigger Framework@2.0.0-2": "04t1P0000006JqUQAU",
        "EDHU Trigger Framework@2.0.0-3": "04t1P0000006JqZQAU"
    }
}